…
Did this work?

``` r
cv_df |> 
  pull(train) |> nth(3)
```

    ## # A tibble: 176 × 3
    ##    range logratio    id
    ##    <dbl>    <dbl> <int>
    ##  1   390  -0.0504     1
    ##  2   391  -0.0601     2
    ##  3   394  -0.0510     4
    ##  4   396  -0.0599     5
    ##  5   397  -0.0284     6
    ##  6   399  -0.0596     7
    ##  7   400  -0.0399     8
    ##  8   402  -0.0294     9
    ##  9   403  -0.0395    10
    ## 10   406  -0.0604    12
    ## # ℹ 166 more rows
…
